…
nodes <- data.frame(id = unique(c(edges$Source, edges$Target)))
nodes$enriched <- "None"
nodes[nodes$id %in% de_intersect[de_intersect$log2FoldChange > 0,]$external_gene_name,]$enriched <- "Adult"
nodes[nodes$id %in% de_intersect[de_intersect$log2FoldChange < 0,]$external_gene_name,]$enriched <- "Fetal"
nodes[nodes$id %in% edges[edges$zScore > 1,]$Source,]$enriched <- "Adult"
nodes[nodes$id %in% edges[edges$zScore < -1,]$Source,]$enriched <- "Fetal"

nodes$type <- "GO_node"
nodes[nodes$id %in% de_intersect$external_gene_name,]$type <- "Gene_node" 

edges[edges$Source == "YAP1 Signaling",]
```

    ## # A tibble: 67 x 6
    ##    Source         Target     pVal zScore type     comparison    
    ##    <chr>          <chr>     <dbl>  <dbl> <chr>    <chr>         
    ##  1 YAP1 Signaling ACLY       9.36  -3.98 Upstream Adult_vs_Fetal
    ##  2 YAP1 Signaling ACSL4      9.36  -3.98 Upstream Adult_vs_Fetal
    ##  3 YAP1 Signaling ACTA2      9.36  -3.98 Upstream Adult_vs_Fetal
    ##  4 YAP1 Signaling AURKB      9.36  -3.98 Upstream Adult_vs_Fetal
    ##  5 YAP1 Signaling BAX        9.36  -3.98 Upstream Adult_vs_Fetal
    ##  6 YAP1 Signaling BIRC5      9.36  -3.98 Upstream Adult_vs_Fetal
    ##  7 YAP1 Signaling BMPR1B     9.36  -3.98 Upstream Adult_vs_Fetal
    ##  8 YAP1 Signaling C10orf143  9.36  -3.98 Upstream Adult_vs_Fetal
    ##  9 YAP1 Signaling CYR61      9.36  -3.98 Upstream Adult_vs_Fetal
    ## 10 YAP1 Signaling CD274      9.36  -3.98 Upstream Adult_vs_Fetal
    ## # … with 57 more rows
…
